<svg xmlns="http://www.w3.org/2000/svg" width="74" height="73" viewBox="0 0 74 73">
  <metadata><?xpacket begin="﻿" id="W5M0MpCehiHzreSzNTczkc9d"?>
<x:xmpmeta xmlns:x="adobe:ns:meta/" x:xmptk="Adobe XMP Core 5.6-c138 79.159824, 2016/09/14-01:09:01        ">
   <rdf:RDF xmlns:rdf="http://www.w3.org/1999/02/22-rdf-syntax-ns#">
      <rdf:Description rdf:about=""/>
   </rdf:RDF>
</x:xmpmeta>
                                                                                                    
                                                                                                    
                                                                                                    
                                                                                                    
                                                                                                    
                                                                                                    
                                                                                                    
                                                                                                    
                                                                                                    
                                                                                                    
                                                                                                    
                                                                                                    
                                                                                                    
                                                                                                    
                                                                                                    
                                                                                                    
                                                                                                    
                                                                                                    
                                                                                                    
                                                                                                    
                           
<?xpacket end="w"?></metadata>
<defs>
    <style>
      .cls-1 {
        fill: #25b1ec;
        fill-rule: evenodd;
      }
    </style>
  </defs>
  <path id="Shape_1_copy_3" data-name="Shape 1 copy 3" class="cls-1" d="M1937.76,2731.53c-0.23.63-.55,1.1,0.32,1.45,0.26,0.1.3-.02,0.35-0.14C1938.76,2731.93,1938.51,2731.84,1937.76,2731.53Zm-63.16-20.24,0,29.33c-0.03.03-4.15,7.32,3.1,2.32a10.893,10.893,0,0,1,2.68-1.43c1.68-.47,1.85,9.66,3.24,3.32,1.01-4.62,1.26,5.55,2.37,4.72,0.92-.68,2.78-3.82,4.51-3.82,0.59,0,4.4,6.02,4.6,5.47a1.321,1.321,0,0,0-.06-1.16c0.31-.86,1.44-1.18,2.43-1.38a1.041,1.041,0,0,1,.12.05,0.587,0.587,0,0,0-.02.43c0.12,0.05.17-.07,0.3-0.02a0.549,0.549,0,0,1,.03.3c0.42,0.03.79,0.18,1.21,0.21l-0.42,1.15-0.13-.05c0.13,0.05.7,0.44,0.8,0.18-0.13-.05-0.08-0.18-0.2-0.23l-0.18.08,0.29-.77c0.32,0.28,1,.41.81,0.92,1.04,0.28,4.87,2,5.44.47,1.43-2.76,4.39-2.36,4.72-2.43a2.815,2.815,0,0,1,.69,1.42,0.121,0.121,0,0,1,.17-0.07,3.581,3.581,0,0,1,.5,1.38c0.67,0.12,1.37.56,1.79-.59,0.29-.76-0.09-1.66.14-2.3,0.48-1.27,3.63-2.03,4.26-1.77,2.25,0.92,1.3,2.3,2.3,2.71a1.452,1.452,0,0,0,1.67-.64c0.16-.82-0.74-1.48-0.92-2.15a7.971,7.971,0,0,1,.36-1.76c0.97,0.11,3.58-3.82,3.62-3.95a2.6,2.6,0,0,1,2.36-.94c0.51,0.21,1.2.64,1.83,0.9,0.75,0.3,1.3.39,1.49-.12a3.981,3.981,0,0,0,.08-1,4.67,4.67,0,0,0-.36-1.76c0.2-.52.82-0.26,1.01-0.77,0.47-1.27-1.65-2.15-1.46-2.65,0.1-.26,1.44-1.18,1.67-1.82,0.15-.38.16-0.82,0.35-1.32a2.288,2.288,0,0,1,3.06-1.25c0.75,0.31,1.15.77,2.02,1.13,0.63,0.26,1.17.33,1.32-.05l1.75,0.72c0.5,0.2.62,0.26,0.67,0.13a0.841,0.841,0,0,0-.45-0.34c-0.25-.1-0.55-0.07-0.79-0.17a0.374,0.374,0,0,1-.24-0.54c-0.5-.21-0.22.2-0.72,0-0.13-.06-0.95-1.72-1-1.59a7.015,7.015,0,0,1-2.11-.13,2.367,2.367,0,0,1-1.54-2.84c0.57-1.53,2.92-3.21,3.92-2.8,0.17-2-1.98-5.52-1.79-6.03,0.24-.64,1.96-1.4,2.19-2.05,0.29-.76-1.32-1.86-1.18-2.24,0.27-.33,1.03.72,1.46-0.43a0.814,0.814,0,0,0-.47-1.08c-1.25-.51-1.28.36-1.9,0.1-0.08-1.35-.82-2.83-0.59-3.47,0.19-.52,2.55-1.45,2.93-1.3,0.75,0.31.46,2.25,1.46,2.66,0.26-1.07-.53-1.69-0.44-2.68,1.64,0.23,4.5-1.68,4.65-2.06-4.02-.04-7.21.42-9.09-0.36-0.87-.35-0.65-0.56-0.74-1.48l-0.86-1.96a14.87,14.87,0,0,1-1.32-2.61l0.75-2.05c0.81-2.16,3.8-3.28,3.8-3.28l-0.12-.05c0.47-.11,1.79-1.33,1.91-1.28,0.06-.56.26-1.07,0.32-1.63-1.87-.77-6.33,6.22-8.58,5.29-0.86-.35-1.54-3.48-1.91-3.71a18.091,18.091,0,0,1,1.29-1.98c-0.63-.26.64-1.35-0.36-1.76s-3.14,1.49-3.52,1.34c-2.5-1.03-1.44-4.27-2.56-4.73-0.63-.26-3.69,1.42-4.2,1.22-1.99-.83-0.05-2.97-1.36-4.09-0.14.38-.59,0.05-1.03,0.46-0.09.25-.11,0.69-0.26,1.07-0.8,2.17-3.5-.27-3.73.37-1-.41-1.9-1.07-1.39-2.48a6.8,6.8,0,0,1,.53-0.66c-0.5-.21-0.04-1.05-0.02-1.48l-0.87-.36c-0.34.89-.65,0.18-0.97,1.07l-0.43,1.15c0.25,0.1.21,0.23,0.11,0.49-0.66,1.78-1.29,1.53-2.16,1.16a6.35,6.35,0,0,1-2.25-2.17c-0.82.73-1.72,3.04-3.56,2.29-1.12-.46.56-3.45-1.18-4.17a0.905,0.905,0,0,0-1.12.72,1.868,1.868,0,0,0,.33,2.19c-1.18,2.02-2.95,2.91-4.95,2.09-2.12-.88-1.87-1.95-3.25-3.25-0.15.38-.16,0.81-0.26,1.07a0.617,0.617,0,0,1-.32.46c-0.99-.41-0.71-1.18-1.74-1.9-0.57,2.71,3.77,4.2,3.11,5.99a2.544,2.544,0,0,1-.46.84c-0.25-.11-3.03-1.54-2.74-2.3a1.138,1.138,0,0,0-1.51.56c-0.28.76,0.65,1.73,0.32,2.62,0,0-1.63,4.04-3.13,3.42-1.63-.67-2.52-3.68-3.53-4.09a0.814,0.814,0,0,0-1.2.53s2.57,3.56,1.82,5.59c-0.19.52-.87,0.39-1.01,0.77a2.008,2.008,0,0,1,.06.61c-0.05.13-.31,0.47-0.36,0.59a13.592,13.592,0,0,0,.21,2.15c-0.04.12-1.46,1.6-2.21,1.3a8.138,8.138,0,0,1-1.08-.59,2.22,2.22,0,0,0-1.5.56c-0.56,1.53,2.78,1.43,1.88,3.86-0.18.51-.38,1.02-0.63,0.91a2.1,2.1,0,0,0-.03.87c0.12,0.05-5.22,3.59-5.31,3.85-1.33,3.58,3.95,3.69,2.63,7.25-0.38,1.03-2.32,1.99-2.65,2.89-0.47,1.28.65,1.74,0.41,2.38a3.941,3.941,0,0,0-.31.45,0.343,0.343,0,0,1,.1.48c-0.23.64-1.62,1.69-1.81,2.2,2.08-.17,3.27-0.27,4.02.04,1.43,0.59,1.44,2.03,1.91,2.87a0.343,0.343,0,0,0-.12-0.12c-0.75-.31-1.22.64-1.45,0.92-0.86-.35-1.42,4.18-0.45,4.43,2.83,0.75.85,1.97,0.45,4.1-0.61,3.21,5.21,1.17,5.17,1.31m2.14-23.34a1.571,1.571,0,0,1-.09.23,1.292,1.292,0,0,0-.04-0.46A1.71,1.71,0,0,0,1881.67,2714.34Zm-5.7,13.81a0.245,0.245,0,0,0,.13.11m26.78,11.57a1.706,1.706,0,0,0,.1-1.43C1902.74,2739.04,1902.38,2739.62,1902.88,2739.83Z" transform="translate(-1870 -2679)"/>
</svg>
